#https://www.ebi.ac.uk/Tools clustal
lcl|ORF3_Zm00001d052860:1084:665        --L-----T--SYSCILRTKPLL--LSSNGSSN-SIVELSFP-PL----NNLLKYSSHL-	104
lcl|ORF13_Zm00001d019390:1789:1370      --L-----T--SYSCILRTKPLL--LSSNGSSN-SIVELSFP-PL----NNLLKYSFHL-	104
lcl|ORF14_Zm00001d025280:1855:1436      --L-----T--SYSCILRTKPLL--LSSNGSSN-SIVELSFP-PL----NNLLKYSFHL-	104


lcl|ORF6_Zm00001d044180:235:2           --------------------------LS----------------CKLSSPVLLLLLVILL	24
lcl|ORF3_Zm00001d047810:298:2           --------------------------LS----------------CKLSSPVLLLLLVILL	24

lcl|ORF4_Zm00001d018250:313:122         ------------------------------------------MSR---PETLQYAL-FCM	14
lcl|ORF4_Zm00001d029370:313:122         ------------------------------------------MSR---PETLQYAL-FCM	14

lcl|ORF1_Zm00001d032860:1754:1500       --------------------------PLKNIIC----P--SRTF----LIVGNLIFLGGH	26
lcl|ORF1_Zm00001d035430:1640:1386       --------------------------PLKNIMC----P--SRTF----LIVGNLIFLRGH	26

